{
  "LuaSnip": { "branch": "master", "commit": "a4de64570b9620875c8ea04175cd07ed8e32ac99" },
  "cmp-buffer": { "branch": "main", "commit": "3022dbc9166796b644a841a02de8dd1cc1d311fa" },
  "cmp-cmdline": { "branch": "main", "commit": "8ee981b4a91f536f52add291594e89fb6645e451" },
  "cmp-nvim-lsp": { "branch": "main", "commit": "44b16d11215dce86f253ce0c30949813c0a90765" },
  "cmp-nvim-lua": { "branch": "main", "commit": "f12408bdb54c39c23e67cab726264c10db33ada8" },
  "cmp-path": { "branch": "main", "commit": "91ff86cd9c29299a64f968ebb45846c485725f23" },
  "gitsigns.nvim": { "branch": "main", "commit": "af0f583cd35286dd6f0e3ed52622728703237e50" },
  "gruvbox": { "branch": "main", "commit": "477c62493c82684ed510c4f70eaf83802e398898" },
  "guess-indent.nvim": { "branch": "main", "commit": "b8ae749fce17aa4c267eec80a6984130b94f80b2" },
  "lazy.nvim": { "branch": "main", "commit": "96584866b9c5e998cbae300594d0ccfd0c464627" },
  "lualine.nvim": { "branch": "master", "commit": "2248ef254d0a1488a72041cfb45ca9caada6d994" },
  "mason-lspconfig.nvim": { "branch": "main", "commit": "40301e1c74bc0946eece13edf2b1c561cc497491" },
  "mason.nvim": { "branch": "main", "commit": "eabf6d347fdb75be360d4c0ced1145670a171453" },
  "nui.nvim": { "branch": "main", "commit": "c0c8e347ceac53030f5c1ece1c5a5b6a17a25b32" },
  "nvim-autopairs": { "branch": "master", "commit": "0f04d78619cce9a5af4f355968040f7d675854a1" },
  "nvim-cmp": { "branch": "main", "commit": "51260c02a8ffded8e16162dcf41a23ec90cfba62" },
  "nvim-lspconfig": { "branch": "master", "commit": "b44737605807023d32e6310b87ba69f4dbf10e0e" },
  "nvim-treesitter": { "branch": "master", "commit": "a82bba45fb0fb43fc2e7998f3394fadc80606d8a" },
  "nvim-web-devicons": { "branch": "master", "commit": "5de460ca7595806044eced31e3c36c159a493857" },
  "oil.nvim": { "branch": "master", "commit": "aea896a880e294c97a7c395dd8a6c89bdc93c644" },
  "plenary.nvim": { "branch": "master", "commit": "50012918b2fc8357b87cff2a7f7f0446e47da174" },
  "rose-pine": { "branch": "main", "commit": "92762f4fa2144c05db760ea254f4c399a56a7ef5" },
  "rust-tools.nvim": { "branch": "master", "commit": "0cc8adab23117783a0292a0c8a2fbed1005dc645" },
  "telescope.nvim": { "branch": "master", "commit": "4522d7e3ea75ffddabdc39957168a8a7060b5df0" },
  "vim-pencil": { "branch": "master", "commit": "6d70438a8886eaf933c38a7a43a61adb0a7815ed" },
  "which-key.nvim": { "branch": "main", "commit": "4433e5ec9a507e5097571ed55c02ea9658fb268a" }
}